%YAML 1.1
%TAG !u! tag:unity3d.com,2011:
--- !u!78 &1
TagManager:
  serializedVersion: 2
  tags:
  - Ground
  - Solider
  - Dan
  - SpawnTown
  - LeftTown
  - RightTown
  - CenterTown
  - Fire
  - hitbox
  - SarubiaBullet
  - Sarbia_BulleSpawn
  - enemy
  - END
  - Right
  - SpwanBerSerKer
  - DestroyTruck
  - InstantitateBoom
  - MachineGun
  layers:
  - Default
  - TransparentFX
  - Ignore Raycast
  - 
  - Water
  - UI
  - 
  - 
  - Player
  - Enemy
  - Enviroment
  - 1
  - 2
  - 3
  - 
  - 
  - 
  - 
  - 
  - 
  - 
  - 
  - 
  - 
  - 
  - 
  - 
  - 
  - 
  - 
  - 
  - 
  m_SortingLayers:
  - name: Default
    uniqueID: 0
    locked: 0
